<?xml version="1.0" standalone="no"?>
<!DOCTYPE svg PUBLIC "-//W3C//DTD SVG 1.1//EN" "http://www.w3.org/Graphics/SVG/1.1/DTD/svg11.dtd" >
<svg xmlns="http://www.w3.org/2000/svg">
<metadata>Generated by IcoMoon</metadata>
<defs>
<font id="icomoon" horiz-adv-x="512">
<font-face units-per-em="512" ascent="480" descent="-32" />
<missing-glyph horiz-adv-x="512" />
<glyph unicode="&#x20;" d="" horiz-adv-x="256" />
<glyph unicode="&#xe600;" d="M472.368 294.14v-62.224h-18.868v64.676c-6.352 0.76-13.084 1.5-20.128 2.192v-66.868h-18.868v68.512c-6.54 0.5-13.256 0.94-20.124 1.296v-69.808h-18.868v70.548c-6.64 0.18-13.36 0.268-20.128 0.252v-120.8h-18.868v120.464c-6.712-0.228-13.432-0.584-20.124-1.064v-69.4h-18.868v67.648c-6.792-0.78-13.516-1.72-20.128-2.84v-64.808h-18.868v61.032c-6.904-1.612-13.624-3.456-20.128-5.552v-55.48h-18.868v49.128c-6.668-2.056-13.388-3.816-20.128-5.308v-93.82h-18.868v90.308c-6.736-1.012-13.456-1.788-20.128-2.352v-37.956h-18.868v36.9c-6.808-0.2-13.532-0.216-20.128-0.060v-36.84h-18.868v37.728c-6.932 0.488-13.644 1.14-20.128 1.892v-39.62h-18.868v42.208c-7.188 1.136-13.928 2.364-20.128 3.616v-95.824h-18.86v100.040c-14.98 3.684-23.892 6.704-23.892 6.704v-167.116c0 0 124.524-42.364 230.176-3.84 105.66 38.516 280.488 2.9 280.488 2.9v167.112c0 0-15.048 3.064-38.964 6.424zM212.564 315.876c0-16.897-47.434-30.596-105.948-30.596s-105.948 13.699-105.948 30.596c0 16.898 47.434 30.596 105.948 30.596 58.514 0 105.948-13.698 105.948-30.596z" />
<glyph unicode="&#xe601;" d="M317.956 4.32l-79.296 312.904-53.756-234.336-97.512 159.884-44.316-133.592-43.144-35.668 79.46 239.372 92.892-152.304 64.94 283.1 86.38-340.848 84.532 222.74 103.936-142.716v-52.776l-95.648 133.7z" />
<glyph unicode="&#xe602;" d="M512 275.344h-168.12c0 0-5.092-41.712-50.944-41.712 0 0-23.56-1.908-23.56 35.664l-4.456-5.732v-8.12c0 0 1.588-3.664-8.916-3.664s-8.916 3.664-8.916 3.664v8.12l-4.456 5.732c0-37.572-23.56-35.664-23.56-35.664-45.848 0-50.948 41.712-50.948 41.712h-168.124c105.076-29.612 77.372-94.568 77.372-94.568 159.524 12.42 178.628-72.12 178.628-72.12s19.104 84.54 178.624 72.12c0 0-27.7 64.956 77.376 94.568z" />
<glyph unicode="&#xe603;" d="M30.116 480h84.708v-512h-84.708v512zM203.764 480h84.704v-512h-84.704v512zM357.648 480h124.236v-22.588h-124.236v22.588zM404.708 449.412h77.176v-22.588h-77.176v22.588zM404.708 418.824h77.176v-22.588h-77.176v22.588zM404.708 388.236h77.176v-22.588h-77.176v22.588zM357.648 357.648h124.236v-22.588h-124.236v22.588zM404.708 327.060h77.176v-22.588h-77.176v22.588zM404.708 296.472h77.176v-22.588h-77.176v22.588zM404.708 265.884h77.176v-22.588h-77.176v22.588zM357.648 235.296h124.236v-22.588h-124.236v22.588zM404.708 204.708h77.176v-22.588h-77.176v22.588zM404.708 174.116h77.176v-22.584h-77.176v22.584zM404.708 143.532h77.176v-22.588h-77.176v22.588zM357.648 112.94h124.236v-22.588h-124.236v22.588zM404.708 82.352h77.176v-22.584h-77.176v22.584zM404.708 51.764h77.176v-22.588h-77.176v22.588zM404.708 21.176h77.176v-22.584h-77.176v22.584zM357.648-9.412h124.236v-22.588h-124.236v22.588z" />
<glyph unicode="&#xe604;" d="M256 480c-141.384 0-256-114.616-256-256s114.616-256 256-256c141.384 0 256 114.616 256 256 0 141.384-114.616 256-256 256zM398.668 186.668h-285.336v74.664h285.336v-74.664z" />
<glyph unicode="&#xe605;" d="M392.676 369.396c25.14 0 45.516 21.916 45.516 48.948s-20.376 48.944-45.516 48.944c-25.136 0-45.512-21.912-45.512-48.944 0-27.036 20.376-48.948 45.512-48.948zM503.636 364.072c-8.936 7.82-22.512 6.928-30.344-2.024l-51.384-58.736-30.384 27.436 3.916 4.672-44.888 41.148c-16.212 14.34-22.444 5.68-22.444 5.68h-105.216l-80.636-92.152c-7.82-8.936-6.904-22.524 2.040-30.344 8.936-7.82 22.508-6.928 30.34 2.024l67.152 76.756h48.060l-55.26-63.144v-0.296l-98.204-109.88h-109.42c-14.344 0-25.952-11.616-25.952-25.952 0-14.332 11.608-25.948 25.952-25.948l147.764 0.088 66.268 74.152 55.28-48.112-32.416-126.52c-3.452-13.916 5.036-27.984 18.936-31.432 13.912-3.456 27.992 5.012 31.444 18.928 0.012 0.056 0.020 0.108 0.032 0.16l43.364 169.22-0.128 0.032-58.292 50.724 64.22 76.656 29.688-26.808-0.444-0.508 32.368-28.32 29.296 32.448-0.504 0.456 51.84 59.248c7.812 8.944 6.9 22.528-2.044 30.348z" />
<glyph unicode="&#xe606;" d="M314.556 418.84l-67.98-109.084 83.228-34.048-58.636-77.556 90.796-54.86-92.692-64.316 49.184 54.856-93.636 54.86 44.452 73.772-88.908 37.832 27.228 118.544h-207.592l22.704-389.68h466.596l22.7 389.68z" />
<glyph unicode="&#xe607;" d="M77.552 396.76v-349.464c0-20.444 16.728-37.18 37.176-37.18h282.548c20.448 0 37.176 16.736 37.176 37.18v349.464h-356.9zM393.556 67.744h-115.252v20.448h115.252v-20.448zM393.556 151.396h-115.252v20.448h115.252v-20.448zM393.556 235.044h-115.252v20.448h115.252v-20.448zM393.556 318.692h-115.252v20.444h115.252v-20.444zM256-30.772h-159.864c-16.124 0-28.948 4.836-38.112 14.388-14.696 15.324-13.964 37.052-13.924 37.968l-0.008 391.636-43.484 65.552h20.040l38.312-61.288v-396.212c-0.008-0.444-0.436-16.776 9.876-27.444 6.248-6.456 15.428-9.736 27.3-9.736h159.864v-14.864zM415.864-30.772h-159.864v14.868h159.864c11.872 0 21.056 3.276 27.3 9.736 10.312 10.668 9.884 27 9.884 27.164l-0.008 396.492 38.312 61.288h20.040l-43.48-65.556v-391.944c0.032-0.608 0.76-22.336-13.932-37.66-9.168-9.552-21.992-14.388-38.116-14.388z" />
<glyph unicode="&#xe608;" d="M91.584 220.668c17.008 45.716 28.26 74.344 33.732 85.88 7.544 0.892 13.72 1.696 18.536 2.44 4.8 0.744 8.904 1.368 12.312 1.892 3.4 0.516 7.1 1.14 11.092 1.884-7.248-42.908-13.312-96.972-18.192-162.22l-39.728-7.096c0 5.324 0.672 13.9 2 25.744l3.104 26.628c1.48 13.46 2.884 23.888 4.22 31.284h-2c-2.072-6.356-4.404-13.056-6.988-20.084-2.588-7.028-5.216-14.164-7.88-21.412-2.66-7.248-5.292-14.392-7.872-21.416-2.596-7.028-4.856-13.728-6.772-20.084-5.332-0.148-9.84-0.376-13.54-0.664l-13.312-0.672 7.324 84.328h-3.332c-0.296-1.924-1.080-5.216-2.332-9.872-1.256-4.66-2.664-9.984-4.22-15.98-1.548-5.988-3.252-12.204-5.096-18.636-1.852-6.432-3.596-12.392-5.22-17.86-2.66-9.476-4.584-16.060-5.768-19.756l-37.496-2.436c24.108 72.788 40.464 126.048 49.048 159.78 8.424 0 16.336 0.436 23.74 1.328 7.396 0.892 15.384 1.696 23.968 2.44-0.444-3.252-0.932-6.956-1.448-11.092-0.516-4.144-1.108-8.512-1.772-13.096-0.664-4.588-1.368-9.288-2.112-14.092-0.744-4.808-1.656-11.024-2.768-18.636-1.108-7.62-2.556-17.128-4.332-28.516h3.104zM201.872 178.956c3.696 0 7.62 2.288 11.764 6.88 4.136 4.732 6.8 9.604 7.988 14.64l25.96-10.424c-6.66-15.536-15.384-27.896-26.188-37.064-9.616-8.14-19.448-12.204-29.508-12.204-9.468 0-17.168 4.288-23.080 12.868-6.216 9.176-9.328 21.232-9.328 36.172 0 14.944 1.964 29.368 5.888 43.276 3.916 13.908 9.428 26.368 16.532 37.392 7.1 11.020 15.564 19.932 25.408 26.744 9.832 6.8 20.596 10.212 32.284 10.212 7.544 0 13.984-2.884 19.308-8.664 5.172-5.916 7.764-13.68 7.764-23.296v-2.884c0-0.892-0.072-1.852-0.22-2.884l-29.74-7.992c-1.776 3.696-3.884 5.552-6.324 5.552s-4.996-1.416-7.656-4.224c-2.664-2.812-5.292-6.432-7.88-10.872s-5.068-9.428-7.432-14.98c-2.368-5.552-4.44-11.132-6.216-16.752-4.144-12.432-6.216-22.452-6.216-30.072 0.016-7.62 2.312-11.424 6.892-11.424zM370.22 273.592c1.092 4.4 1.656 9.028 1.656 13.876s-1.228 8.764-3.648 11.744c-2.424 2.98-5.004 4.456-7.76 4.456-2.76 0-5.448-0.656-8.1-1.984-2.64-1.324-5.284-3.080-7.924-5.284-6.184-5.076-9.252-10.528-9.252-16.36 0-5.848 1.532-10.58 4.616-14.212 3.088-3.644 6.88-6.996 11.4-10.084 4.52-3.096 9.428-6.284 14.72-9.592 5.292-3.3 10.252-7.496 14.88-12.564 10.572-12.344 15.868-28.752 15.868-49.248 0-24.688-9.044-45.076-27.108-61.156-17.192-15.428-38.892-23.148-65.116-23.148-19.404 0-37.14 10.14-53.24 30.416l25.132 49.256c3.088-6.176 9.040-11.796 17.856-16.872 8.8-5.284 15.416-7.924 19.832-7.924 4.404 0 8.088 0.436 11.072 1.32 2.968 0.884 5.676 2.208 8.096 3.964 5.504 3.968 8.264 8.76 8.264 14.384s-1.768 10.744-5.284 15.372c-3.528 4.632-7.884 9.036-13.056 13.228-5.184 4.18-10.804 8.432-16.864 12.728-6.068 4.3-11.632 8.872-16.7 13.72-12.344 11.012-18.504 22.584-18.504 34.708 0 12.116 3.472 23.248 10.416 33.388 6.932 10.14 15.636 18.896 26.1 26.284 10.476 7.38 21.936 13.228 34.4 17.524 12.444 4.292 22.972 6.44 31.568 6.44 8.596 0 15.58-0.772 20.988-2.312 5.404-1.548 10.084-3.856 14.056-6.944 8.592-7.060 12.892-17.408 12.892-31.072 0-3.308-0.28-6.504-0.828-9.584-0.564-3.096-1.048-6.504-1.492-10.252l-48.936-14.216zM445.704 180.060l-9.088-32.612c-3.412-0.444-7.364-0.968-11.876-1.556-4.52-0.592-8.992-1.152-13.428-1.668-4.432-0.524-9.024-1.080-13.76-1.664 6.068 20.12 11.212 37.132 15.424 51.040 4.224 13.908 7.66 25.336 10.32 34.288 2.664 8.952 5.288 17.824 7.88 26.628 2.584 8.8 5.104 17.308 7.544 25.524 2.444 8.208 4.628 15.712 6.552 22.52 27.368 1.924 48.228 4.292 62.58 7.096-1.336-14.64-2.436-31.948-3.332-51.92-1.92-39.8-3.548-76.488-4.884-110.068-4.432-0.744-8.764-1.408-12.976-2-4.224-0.588-8.584-1.26-13.092-1.996-4.512-0.744-8.624-1.408-12.312-1.992 1.624 14.196 3.024 26.992 4.212 38.384h-19.764zM451.036 202.7l16.416 1.108c0 0.884 0.116 2.4 0.336 4.552 0.22 2.14 0.476 4.616 0.772 7.432 1.188 15.828 2.444 30.54 3.772 44.16l1.56 19.748-3.56-0.22-19.296-76.78z" />
<glyph unicode="&#xe609;" d="M130.060 214.92c25.304 68 42.040 110.588 50.18 127.752 11.22 1.328 20.408 2.528 27.572 3.636 7.14 1.096 13.248 2.032 18.316 2.808 5.060 0.768 10.56 1.7 16.5 2.804-10.78-63.824-19.804-144.256-27.060-241.312l-59.1-10.56c0 7.916 1 20.676 2.98 38.292l4.616 39.608c2.2 20.024 4.292 35.54 6.28 46.544h-2.98c-3.080-9.46-6.548-19.428-10.396-29.868-3.848-10.464-7.756-21.084-11.72-31.852-3.956-10.792-7.872-21.42-11.712-31.864-3.86-10.452-7.22-20.42-10.072-29.876-7.932-0.224-14.64-0.548-20.14-0.988l-19.804-1 10.896 125.448h-4.956c-0.44-2.86-1.604-7.756-3.464-14.68-1.872-6.928-3.964-14.864-6.28-23.768-2.304-8.916-4.836-18.152-7.584-27.736-2.756-9.572-5.348-18.432-7.768-26.576-3.956-14.084-6.816-23.872-8.584-29.388l-55.78-3.62c35.864 108.276 60.192 187.504 72.96 237.684 12.536 0 24.304 0.656 35.316 1.976 11 1.328 22.888 2.528 35.656 3.632-0.664-4.84-1.384-10.348-2.152-16.504-0.768-6.164-1.652-12.66-2.64-19.472-0.988-6.828-2.036-13.816-3.14-20.968-1.104-7.152-2.464-16.4-4.116-27.732-1.652-11.332-3.804-25.472-6.444-42.416h4.62zM294.12 152.868c5.5 0 11.336 3.408 17.5 10.232 6.152 7.036 10.116 14.304 11.888 21.78l38.616-15.512c-9.908-23.104-22.888-41.48-38.956-55.132-14.3-12.092-28.932-18.152-43.9-18.152-14.084 0-25.536 6.384-34.328 19.152-9.248 13.64-13.872 31.576-13.872 53.796 0 22.236 2.916 43.688 8.756 64.376 5.828 20.688 14.024 39.232 24.592 55.628 10.56 16.392 23.156 29.656 37.796 39.776 14.632 10.116 30.644 15.188 48.032 15.188 11.224 0 20.804-4.292 28.724-12.88 7.7-8.804 11.548-20.356 11.548-34.66v-4.292c0-1.32-0.104-2.756-0.324-4.292l-44.24-11.884c-2.64 5.5-5.776 8.256-9.408 8.256s-7.432-2.1-11.388-6.272c-3.964-4.188-7.872-9.58-11.724-16.176-3.848-6.604-7.536-14.032-11.060-22.28-3.524-8.256-6.604-16.568-9.244-24.924-6.164-18.48-9.248-33.4-9.248-44.728 0.008-11.34 3.424-17 10.24-17zM419.564 154.516l-13.528-48.528c-5.072-0.66-10.952-1.428-17.664-2.312-6.72-0.884-13.372-1.7-19.976-2.476-6.592-0.78-13.42-1.592-20.468-2.476 9.024 29.928 16.676 55.236 22.944 75.936 6.28 20.676 11.396 37.676 15.352 50.992 3.964 13.316 7.872 26.52 11.72 39.616 3.852 13.088 7.592 25.748 11.224 37.964 3.64 12.216 6.888 23.38 9.748 33.508 40.716 2.856 71.74 6.38 93.088 10.56-1.988-21.788-3.628-47.536-4.952-77.248-2.864-59.204-5.28-113.776-7.268-163.736-6.592-1.104-13.036-2.092-19.304-2.968-6.276-0.884-12.764-1.884-19.476-2.976-6.712-1.088-12.828-2.092-18.316-2.964 2.416 21.128 4.5 40.156 6.268 57.108h-29.392zM427.492 188.184l24.42 1.652c0 1.324 0.172 3.58 0.5 6.764 0.324 3.188 0.708 6.888 1.148 11.060 1.768 23.552 3.64 45.44 5.616 65.692l2.316 29.38-5.292-0.332-28.708-114.216z" />
<glyph unicode="&#xe60a;" d="M182.612 419.648l-160.924-349.504 394.764-82.976 95.548 432.48h-329.388zM388.828 27.084l-321.884 67.664 133.736 299.76h268.58l-80.432-367.424zM208.865 353.821l0.324 17.6 224.995-4.14-0.324-17.601-224.995 4.141zM235.728 296.756l-0.316-17.6 177.72-8.62 0.32 17.604zM288.844 204.98l-0.312-17.6 102.912-7.368 0.32 17.608zM105.604 117.604l254.724-40.364 0.32 17.6-254.728 40.368zM108.432 403.304c0 0-9.428-43.372-62.232-51.86l88.368-105.124 36.696 82.252-62.832 74.732zM241.388 155.316l28.284 20.752-1.892 37.708-96.516 114.8-36.696-82.256 75.7-90.060zM96.176 423.108l-33 37.716c0 0-50.916 1.888-63.176-50.916l33.944-39.604c0 0 43.376 3.772 62.232 52.804zM263.704 125.932l29.548-7.2-3.604 26.656z" />
<glyph unicode="&#xe60b;" d="M162.568-28c-52.5 29.532-87.608 59.392-105.328 89.58s-22.312 65.296-13.78 105.328c3.28 17.064 13.616 43.148 31.008 78.256s26.744 63.164 28.056 84.164c11.812-21.656 18.704-49.548 20.672-83.672 73.496 89.908 105.324 166.688 95.48 230.344 3.936-1.968 8.86-4.592 14.764-7.876s16.572-10.664 31.992-22.148 29.204-23.788 41.344-36.916 23.624-30.352 34.452-51.68 16.9-43.476 18.212-66.444c5.908 12.468 8.86 27.564 8.86 45.28s-2.952 32.812-8.86 45.28c6.564-4.592 14.764-12.14 24.608-22.64s21.164-24.772 33.96-42.82 24.116-37.408 33.96-58.080 16.244-43.476 19.196-68.416 1.64-49.384-3.936-73.336-19.36-48.728-41.344-74.32-51.348-48.884-88.1-69.884c24.936 49.876 29.696 103.852 14.272 161.928s-45.444 102.868-90.068 134.368c3.28-17.064 1.64-39.868-4.92-68.416s-18.704-52.664-36.42-72.352c1.312 5.252 2.132 10.172 2.46 14.764s0.328 8.86 0 12.796-0.82 7.876-1.476 11.812-1.476 7.384-2.46 10.336-1.968 5.744-2.952 8.368-1.968 4.92-2.952 6.892-1.968 3.608-2.952 4.92-1.804 2.952-2.46 4.92c-5.252-27.564-17.064-55.124-35.436-82.688-10.5-14.436-18.048-27.728-22.64-39.868s-6.4-27.564-5.416-46.264 7.048-39.204 18.204-61.516z" />
<glyph unicode="&#xe60c;" d="M256 130.644l-196.208 93.356h-54.46l250.668-119.276 250.68 119.276h-54.46zM256 70.996l-196.208 93.368h-54.46l250.668-119.28 250.68 119.28h-54.46zM5.32 283.652l250.68-119.288 250.68 119.276-250.68 119.276-250.68-119.264zM452.22 283.64l-196.22-93.372-196.22 93.384 196.22 93.352 196.22-93.364z" />
<glyph unicode="&#xe60d;" d="M2.256 81.268h507.484v-63.432h-507.484v63.432zM65.692 208.14h63.436v-95.152h-63.436v95.152zM160.844 335.012h63.436v-222.024h-63.436v222.024zM256 239.86h63.436v-126.872h-63.436v126.872zM351.152 430.168h63.436v-317.176h-63.436v317.176z" />
</font></defs></svg>