InnoDB: The first specified data file C:\xampp\mysql\ibdata1 did not exist:
InnoDB: a new database to be created!
130907 21:14:27  InnoDB: Setting file C:\xampp\mysql\ibdata1 size to 10 MB
InnoDB: Database physically writes the file full: wait...
130907 21:14:28  InnoDB: Log file C:\xampp\mysql\ib_logfile0 did not exist: new to be created
InnoDB: Setting log file C:\xampp\mysql\ib_logfile0 size to 5 MB
InnoDB: Database physically writes the file full: wait...
130907 21:14:28  InnoDB: Log file C:\xampp\mysql\ib_logfile1 did not exist: new to be created
InnoDB: Setting log file C:\xampp\mysql\ib_logfile1 size to 5 MB
InnoDB: Database physically writes the file full: wait...
InnoDB: Doublewrite buffer not found: creating new
InnoDB: Doublewrite buffer created
InnoDB: Creating foreign key constraint system tables
InnoDB: Foreign key constraint system tables created
130907 21:14:29  InnoDB: Started; log sequence number 0 0
130907 21:14:29 [Note] c:\xampp\mysql\bin\mysqld-nt.exe: ready for connections.
Version: '5.0.51b-community-nt'  socket: ''  port: 3306  MySQL Community Edition (GPL)
130907 21:27:19 [Note] c:\xampp\mysql\bin\mysqld-nt.exe: Normal shutdown

130907 21:27:19  InnoDB: Starting shutdown...
130907 21:27:21  InnoDB: Shutdown completed; log sequence number 0 43655
130907 21:27:21 [Note] c:\xampp\mysql\bin\mysqld-nt.exe: Shutdown complete

130907 21:28:42  InnoDB: Started; log sequence number 0 43655
130907 21:28:43 [Note] c:\xampp\mysql\bin\mysqld-nt.exe: ready for connections.
Version: '5.0.51b-community-nt'  socket: ''  port: 3306  MySQL Community Edition (GPL)
130908 11:38:28 [Note] c:\xampp\mysql\bin\mysqld-nt.exe: Normal shutdown

130908 11:38:30 [Warning] c:\xampp\mysql\bin\mysqld-nt.exe: Forcing close of thread 10  user: 'root'

130908 11:38:30 [Warning] c:\xampp\mysql\bin\mysqld-nt.exe: Forcing close of thread 9  user: 'root'

130908 11:38:30 [Warning] c:\xampp\mysql\bin\mysqld-nt.exe: Forcing close of thread 8  user: 'root'

130908 11:38:30 [Warning] c:\xampp\mysql\bin\mysqld-nt.exe: Forcing close of thread 7  user: 'root'

130908 11:38:30  InnoDB: Starting shutdown...
130908 11:38:32  InnoDB: Shutdown completed; log sequence number 0 43655
130908 11:38:32 [Note] c:\xampp\mysql\bin\mysqld-nt.exe: Shutdown complete

130908 11:43:32  InnoDB: Started; log sequence number 0 43655
130908 11:43:35 [Note] c:\xampp\mysql\bin\mysqld-nt.exe: ready for connections.
Version: '5.0.51b-community-nt'  socket: ''  port: 3306  MySQL Community Edition (GPL)
130908 11:49:08 [Note] c:\xampp\mysql\bin\mysqld-nt.exe: Normal shutdown

130908 11:49:08  InnoDB: Starting shutdown...
130908 11:49:10  InnoDB: Shutdown completed; log sequence number 0 43655
130908 11:49:10 [Note] c:\xampp\mysql\bin\mysqld-nt.exe: Shutdown complete

130908 11:57:01  InnoDB: Started; log sequence number 0 43655
130908 11:57:01 [Note] c:\xampp\mysql\bin\mysqld-nt.exe: ready for connections.
Version: '5.0.51b-community-nt'  socket: ''  port: 3306  MySQL Community Edition (GPL)
130908 15:01:12  InnoDB: Started; log sequence number 0 43655
130908 15:01:12 [Note] c:\xampp\mysql\bin\mysqld-nt.exe: ready for connections.
Version: '5.0.51b-community-nt'  socket: ''  port: 3306  MySQL Community Edition (GPL)
130908 15:02:24 [Note] c:\xampp\mysql\bin\mysqld-nt.exe: Normal shutdown

130908 15:02:24  InnoDB: Starting shutdown...
130908 15:02:25  InnoDB: Shutdown completed; log sequence number 0 43655
130908 15:02:25 [Note] c:\xampp\mysql\bin\mysqld-nt.exe: Shutdown complete

130908 15:03:15  InnoDB: Started; log sequence number 0 43655
130908 15:03:17 [Note] c:\xampp\mysql\bin\mysqld-nt.exe: ready for connections.
Version: '5.0.51b-community-nt'  socket: ''  port: 3306  MySQL Community Edition (GPL)
130908 15:05:01 [Note] c:\xampp\mysql\bin\mysqld-nt.exe: Normal shutdown

130908 15:05:01  InnoDB: Starting shutdown...
130908 15:05:03  InnoDB: Shutdown completed; log sequence number 0 43655
130908 15:05:03 [Note] c:\xampp\mysql\bin\mysqld-nt.exe: Shutdown complete

130908 15:05:49  InnoDB: Started; log sequence number 0 43655
130908 15:05:50 [Note] c:\xampp\mysql\bin\mysqld-nt.exe: ready for connections.
Version: '5.0.51b-community-nt'  socket: ''  port: 3306  MySQL Community Edition (GPL)
130908 18:21:39 [Note] c:\xampp\mysql\bin\mysqld-nt.exe: Normal shutdown

130908 18:21:41 [Warning] c:\xampp\mysql\bin\mysqld-nt.exe: Forcing close of thread 2  user: 'root'

130908 18:21:41 [Warning] c:\xampp\mysql\bin\mysqld-nt.exe: Forcing close of thread 1  user: 'root'

130908 18:21:41  InnoDB: Starting shutdown...
130908 18:21:44  InnoDB: Shutdown completed; log sequence number 0 43655
130908 18:21:44 [Note] c:\xampp\mysql\bin\mysqld-nt.exe: Shutdown complete

130908 18:22:42  InnoDB: Started; log sequence number 0 43655
130908 18:22:43 [Note] c:\xampp\mysql\bin\mysqld-nt.exe: ready for connections.
Version: '5.0.51b-community-nt'  socket: ''  port: 3306  MySQL Community Edition (GPL)
130908 20:05:24  InnoDB: Started; log sequence number 0 43655
130908 20:05:26 [Note] c:\xampp\mysql\bin\mysqld-nt.exe: ready for connections.
Version: '5.0.51b-community-nt'  socket: ''  port: 3306  MySQL Community Edition (GPL)
130908 21:06:24 [Note] c:\xampp\mysql\bin\mysqld-nt.exe: Normal shutdown

130908 21:06:26 [Warning] c:\xampp\mysql\bin\mysqld-nt.exe: Forcing close of thread 7  user: 'root'

130908 21:06:26 [Warning] c:\xampp\mysql\bin\mysqld-nt.exe: Forcing close of thread 6  user: 'root'

130908 21:06:26 [Warning] c:\xampp\mysql\bin\mysqld-nt.exe: Forcing close of thread 5  user: 'root'

130908 21:06:26 [Warning] c:\xampp\mysql\bin\mysqld-nt.exe: Forcing close of thread 4  user: 'root'

130908 21:06:26 [Warning] c:\xampp\mysql\bin\mysqld-nt.exe: Forcing close of thread 3  user: 'root'

130908 21:06:26 [Warning] c:\xampp\mysql\bin\mysqld-nt.exe: Forcing close of thread 2  user: 'root'

130908 21:06:26 [Warning] c:\xampp\mysql\bin\mysqld-nt.exe: Forcing close of thread 1  user: 'root'

130908 21:06:26  InnoDB: Starting shutdown...
130908 21:06:27  InnoDB: Shutdown completed; log sequence number 0 43655
130908 21:06:27 [Note] c:\xampp\mysql\bin\mysqld-nt.exe: Shutdown complete

130908 21:08:55  InnoDB: Started; log sequence number 0 43655
130908 21:08:58 [Note] c:\xampp\mysql\bin\mysqld-nt.exe: ready for connections.
Version: '5.0.51b-community-nt'  socket: ''  port: 3306  MySQL Community Edition (GPL)
130908 21:30:30  InnoDB: Started; log sequence number 0 43655
130908 21:30:31 [Note] c:\xampp\mysql\bin\mysqld-nt.exe: ready for connections.
Version: '5.0.51b-community-nt'  socket: ''  port: 3306  MySQL Community Edition (GPL)
